…
violation_count<-n_distinct(emtala_pregnant$key_identifier)

state_count<-n_distinct(emtala_pregnant$state)

print(paste("facility_count:",facility_count,"violation_count:",violation_count,"state_count:",state_count))
```

    ## [1] "facility_count: 389 violation_count: 683 state_count: 44"

``` r
emtala_pregnant%>%
  count(state,sort=TRUE)
```

    ## # A tibble: 44 × 2
    ##    state     n
    ##    <chr> <int>
    ##  1 CA       66
    ##  2 TN       46
    ##  3 NC       45
    ##  4 NY       43
    ##  5 FL       41
    ##  6 GA       34
    ##  7 PA       33
    ##  8 OR       29
    ##  9 AL       27
    ## 10 TX       26
    ## # ℹ 34 more rows
…
