…
Script: “OUR SCRIPPS NEWS INVESTIGATION FOUND IT IS AMONG 386
HOSPITALS (FC) AROUND THE COUNTRY REPONSIBLE FOR NEARLY 700 VIOLATIONS
OF THE EMERGENCY MEDICAL TREATMENT AND LABOR ACT – OR EMTALA—

…ALL INVOLVING PREGNANCY EMERGENCIES BETWEEN 2011 AND 2022.”

facility_count<-n_distinct(emtala_pregnant$facility_id)

violation_count<-n_distinct(emtala_pregnant$key_identifier)

state_count<-n_distinct(emtala_pregnant$state)

emtala_pregnant%>%group_by(state)%>% summarize(violations_per_state = n_distinct(key_identifier))

## # A tibble: 44 × 2
##    state violations_per_state
##    <chr>                <int>
##  1 AK                       2
##  2 AL                      27
##  3 AR                       5
##  4 AZ                       7
##  5 CA                      66
##  6 CO                      20
##  7 CT                       3
##  8 FL                      41
##  9 GA                      34
## 10 IA                      23
## # ℹ 34 more rows
…
